Análisis de Fraude Ideal Insurance
…
# Apply the function to each column
outliers_list <- lapply(data[non_target_cols], detect_outliers)

# Convert list to data frame and check for rows with any outlier
outliers_df <- as.data.frame(outliers_list)
rows_with_outliers <- apply(outliers_df, 1, any)

# Display rows with outliers
print(data[rows_with_outliers, ])

## # A tibble: 75,640 × 34
##      tpa policy_ref   member_id   sex   dob policy_start_dt policy_end_dt
##    <dbl>      <dbl>       <dbl> <dbl> <dbl>           <dbl>         <dbl>
##  1     0    9.64e13 86393761621     0 12833           39908         40245
##  2     0    9.64e13 96613477594     1 13223           39908         40245
##  3     0    9.64e13 96613477594     1 13223           39908         40245
##  4     0    9.64e13 96613477594     1 13223           39908         40245
##  5     0    9.64e13 92184431736     1 28572           39908         40245
##  6     0    9.64e13 75362305384     1 30005           39908         40245
##  7     0    9.64e13 77363108540     1 28936           39908         40245
##  8     0    9.64e13 74573053470     0 17926           39908         40245
##  9     0    9.64e13 74573053470     0 17926           39908         40245
## 10     0    9.64e13 74573053470     0 17926           39908         40245
## # ℹ 75,630 more rows
## # ℹ 27 more variables: prod_code <dbl>, policy_type <dbl>, sum_insured <dbl>,
## #   claim_ref <dbl>, claim_dt <dbl>, hos_zipcode <dbl>, admit_dt <dbl>,
## #   discharge_dt <dbl>, payment_dt <dbl>, claim_amt <dbl>, nursing_chg <dbl>,
## #   surgery_chg <dbl>, cons_fee <dbl>, test_chg <dbl>, pharmacy_cost <dbl>,
## #   other_chg <dbl>, pre_hosp_exp <dbl>, post_hosp_exp <dbl>,
## #   other_chg_non_hosp <dbl>, copayment <dbl>, settle_amt <dbl>, …
…
